%YAML 1.1
%TAG !u! tag:unity3d.com,2011:
--- !u!1045 &1
EditorBuildSettings:
  m_ObjectHideFlags: 0
  serializedVersion: 2
  m_Scenes:
  - enabled: 1
    path: Assets/Scenes/Menu.unity
    guid: a091d080f3683e14dbff2fabb3a27edc
  - enabled: 1
    path: Assets/Scenes/Level 1.unity
    guid: 2cda990e2423bbf4892e6590ba056729
  - enabled: 1
    path: Assets/Scenes/Level 2.unity
    guid: 4b43ea76f6cdd034fbb25bc0bea2828c
  - enabled: 1
    path: Assets/Scenes/Level 3.unity
    guid: aa74d565064f13e41b531bf995c7d235
  - enabled: 1
    path: Assets/Scenes/Level 4.unity
    guid: ab25259c65966ac4cb71d98475233f59
  - enabled: 1
    path: Assets/Scenes/Win.unity
    guid: 740c9f2591340ed418243441c3ba2fcd
  - enabled: 1
    path: Assets/Scenes/Lose.unity
    guid: 4db5751af98c60946b9e052f14a6b4e1
  m_configObjects: {}
